Title,Content,Featured Image,Tags,Category,Date
1Post2,"Lorem ipsum dolor sit amet, consectetur adipiscing elit. Praesent auctor nibh nec massa varius viverra. Donec euismod auctor mollis. Sed sed placerat nulla. Quisque vitae mattis metus. Donec imperdiet, nisi feugiat vulputate tristique, justo sapien volutpat ipsum, non auctor ligula eros at tellus. Morbi faucibus felis eu lacus faucibus, in tristique arcu maximus. Suspendisse eget malesuada velit. Aliquam feugiat risus eget luctus porttitor. Praesent commodo in erat vel efficitur. Aenean convallis euismod lacinia. Suspendisse at maximus diam. Sed posuere est dui. Nulla gravida ultrices erat ut euismod. Vivamus gravida rhoncus aliquam. Morbi a aliquam ante.",https://www.ekito.fr/people/wp-content/uploads/2017/01/sample-1.jpg,tagg1,Category1,2018-12-21 15:00
1Post3,"Lorem ipsum dolor sit amet, consectetur adipiscing elit. Praesent auctor nibh nec massa varius viverra. Donec euismod auctor mollis. Sed sed placerat nulla. Quisque vitae mattis metus. Donec imperdiet, nisi feugiat vulputate tristique, justo sapien volutpat ipsum, non auctor ligula eros at tellus. Morbi faucibus felis eu lacus faucibus, in tristique arcu maximus. Suspendisse eget malesuada velit. Aliquam feugiat risus eget luctus porttitor. Praesent commodo in erat vel efficitur. Aenean convallis euismod lacinia. Suspendisse at maximus diam. Sed posuere est dui. Nulla gravida ultrices erat ut euismod. Vivamus gravida rhoncus aliquam. Morbi a aliquam ante.",https://www.ekito.fr/people/wp-content/uploads/2017/01/sample-1.jpg,tagg2,Category2,2018-12-22 15:00
1Post4,"Lorem ipsum dolor sit amet, consectetur adipiscing elit. Praesent auctor nibh nec massa varius viverra. Donec euismod auctor mollis. Sed sed placerat nulla. Quisque vitae mattis metus. Donec imperdiet, nisi feugiat vulputate tristique, justo sapien volutpat ipsum, non auctor ligula eros at tellus. Morbi faucibus felis eu lacus faucibus, in tristique arcu maximus. Suspendisse eget malesuada velit. Aliquam feugiat risus eget luctus porttitor. Praesent commodo in erat vel efficitur. Aenean convallis euismod lacinia. Suspendisse at maximus diam. Sed posuere est dui. Nulla gravida ultrices erat ut euismod. Vivamus gravida rhoncus aliquam. Morbi a aliquam ante.",https://www.ekito.fr/people/wp-content/uploads/2017/01/sample-1.jpg,tagg3,Category3,2018-12-23 15:00
1Post5,"Lorem ipsum dolor sit amet, consectetur adipiscing elit. Praesent auctor nibh nec massa varius viverra. Donec euismod auctor mollis. Sed sed placerat nulla. Quisque vitae mattis metus. Donec imperdiet, nisi feugiat vulputate tristique, justo sapien volutpat ipsum, non auctor ligula eros at tellus. Morbi faucibus felis eu lacus faucibus, in tristique arcu maximus. Suspendisse eget malesuada velit. Aliquam feugiat risus eget luctus porttitor. Praesent commodo in erat vel efficitur. Aenean convallis euismod lacinia. Suspendisse at maximus diam. Sed posuere est dui. Nulla gravida ultrices erat ut euismod. Vivamus gravida rhoncus aliquam. Morbi a aliquam ante.",https://www.ekito.fr/people/wp-content/uploads/2017/01/sample-1.jpg,tagg4,Category4,2018-12-24 15:00
1Post6,"Lorem ipsum dolor sit amet, consectetur adipiscing elit. Praesent auctor nibh nec massa varius viverra. Donec euismod auctor mollis. Sed sed placerat nulla. Quisque vitae mattis metus. Donec imperdiet, nisi feugiat vulputate tristique, justo sapien volutpat ipsum, non auctor ligula eros at tellus. Morbi faucibus felis eu lacus faucibus, in tristique arcu maximus. Suspendisse eget malesuada velit. Aliquam feugiat risus eget luctus porttitor. Praesent commodo in erat vel efficitur. Aenean convallis euismod lacinia. Suspendisse at maximus diam. Sed posuere est dui. Nulla gravida ultrices erat ut euismod. Vivamus gravida rhoncus aliquam. Morbi a aliquam ante.",https://www.ekito.fr/people/wp-content/uploads/2017/01/sample-1.jpg,tagg5,Category5,2018-12-25 15:00
1Post7,"Lorem ipsum dolor sit amet, consectetur adipiscing elit. Praesent auctor nibh nec massa varius viverra. Donec euismod auctor mollis. Sed sed placerat nulla. Quisque vitae mattis metus. Donec imperdiet, nisi feugiat vulputate tristique, justo sapien volutpat ipsum, non auctor ligula eros at tellus. Morbi faucibus felis eu lacus faucibus, in tristique arcu maximus. Suspendisse eget malesuada velit. Aliquam feugiat risus eget luctus porttitor. Praesent commodo in erat vel efficitur. Aenean convallis euismod lacinia. Suspendisse at maximus diam. Sed posuere est dui. Nulla gravida ultrices erat ut euismod. Vivamus gravida rhoncus aliquam. Morbi a aliquam ante.",https://www.ekito.fr/people/wp-content/uploads/2017/01/sample-1.jpg,tagg6,Category6,2018-12-26 15:00